0,0
10000,0
20000,168
30000,168
40000,168
50000,329
60000,329
70000,489
80000,649
90000,649
100000,793
110000,793
120000,793
130000,932
140000,932
150000,1062
160000,1176
170000,1278
180000,1278
190000,1278
200000,1278
210000,1366
220000,1453
230000,1453
240000,1453
250000,1529
260000,1529
270000,1529
280000,1529
290000,1603
300000,1663
