Weights

1
0

Proposals

p1
p2
p3
p4
p5
p6
p7
p8
p9
p10
p11
p12
p13
p14

Supports

168
130
102
76
74
161
139
88
87
160
160
144
114
60

Costs

14000
20500
8500
28000
36000
26000
24000
39500
15000
9500
24000
23000
13000
18000

Budget

40000