0,0
10000,9000
20000,20000
30000,28000
40000,37800
50000,50000
60000,58800
70000,67800
80000,79800
90000,85800
100000,99800
110000,109800
120000,119800
130000,127800
140000,135800
150000,145800
160000,158800
170000,170000
180000,176800
190000,188000
200000,200000
210000,206800
220000,218000
230000,218000
240000,233000
250000,248500
260000,258500
270000,263500
280000,273500
290000,285500
300000,285500
310000,304000
320000,316000
330000,326000
340000,326000
350000,344000
360000,356500
370000,356500
380000,356500
390000,389000
400000,396500
410000,396500
420000,419500
430000,419500
440000,419500
450000,419500
460000,459500
470000,459500
480000,459500
490000,459500
500000,499500
510000,508500
520000,508500
530000,508500
540000,539500
550000,539500
560000,539500
570000,539500
580000,571500
590000,571500
600000,571500
610000,571500
620000,611500
630000,611500
640000,611500
650000,611500
660000,651500
670000,651500
680000,651500
690000,651500
700000,651500
710000,651500
720000,651500
730000,651500
740000,651500
750000,651500
760000,651500
770000,651500
780000,651500
790000,651500
800000,651500
810000,651500
820000,651500
830000,651500
840000,651500
850000,651500
860000,651500
870000,651500
880000,651500
890000,651500
900000,651500
910000,901500
