Weights

1
0

Proposals

p1
p2
p3
p4
p5
p6
p7
p8
p9
p10
p11
p12
p13
p14
p15
p16
p17
p18
p19
p20
p21
p22

Supports

201
199
196
192
189
188
186
180
177
172
172
172
168
166
151
148
143
133
122
121
96
93

Costs

52500
26000
17800
15000
15000
30000
18000
16000
112000
26200
9000
40500
18000
7000
16000
4000
63000
30500
80000
15000
40000
250000

Budget

760000